{
    // IF YOU WANT TO USE THIS EXAMPLE, PLEASE DELETE ALL OF COMMENTED LINES SINCE IT WILL THROW A JSON PARSE ERROR
    "description": "Informational only, not used on the actual process",
    "dataFolder": "./fcc",
    "type": "fcc_speedtest",
    "filter": { // Filter dataset, only data point that passes this filter will be added
        // This filter works by comparing each field on this filter with the same field on the JSON data point
        // Each field that was compared to the JSON's field are treated as conditional AND
        "carrier_name": "Verizon", // Filter by Verizon carrier only
        "tests": {
            "download": { // For download test
                "environment": {
                    "beginning": { // At the beginning of the test
                        "location": { // AND filter by location
                            "lat": [
                                "<41.82461264002405", // The value of latitude must be <41.82461264002405
                                ">41.77905682809057"  // AND must be >41.77905682809057
                            ],
                            "lon": [
                                ">-87.6272964477539", // The value of longitude must be >-87.6272964477539
                                "<-87.5198092545154"  // AND must be <-87.5198092545154
                            ]
                        },
                        "telephony": {
                            "cellular_technology": "4g", // AND filter by 4g connection
                            "cell_signal": {
                                "physical_cell_identity": "140", // AND filter by PCI 140
                            }
                        }
                    }
                },
                "local_datetime": [  // AND filter by date at the start of download test
                    ">2020-11-16T13:00:00.000-0600", // only data that is recorded between Nov 16 2020, 1 PM UTC-6
                    "<2021-03-01T00:00:00.000-0600", // and Mar 1 2021, 12 AM UTC-6
                ]
            },
        }
    },
    "samplingRateMillisec": 60000, // Sampling rate in millisec, 1 data will be selected randomly over the timespan
    "numChunk": 0, // Used to keep track of chunk number
    "fileList": [], // Used to keep track of cache files that has been processed
}