{
    // IF YOU WANT TO USE THIS EXAMPLE, PLEASE DELETE ALL OF COMMENTED LINES SINCE IT WILL THROW A JSON PARSE ERROR
    "description": "Informational only, not used on the actual process",
    "dataFolder": "./sigcap",
    "type": "dataset",
    "filter": { // Filter dataset, only data point that passes this filter will be added
        // This filter works by comparing each field on this filter with the same field on the JSON data point
        // Each field that was compared to the JSON's field are treated as conditional AND
        "location": { // Filter by location
            "latitude": [ // Anything that is inside an array (denoted by []) are treated as conditional AND
                "<41.82461264002405",  // The value of latitude must be <41.82461264002405
                ">41.77905682809057"   // AND must be >41.77905682809057
            ],
            "longitude": ">-87.6272964477539", // AND the value of longitude must be >-87.6272964477539
        },
        "cell_info": { // AND filter by LTE cells
            "pci": "140", // at least one of the cell in data point contains PCI 140
                          // (since cell_info in the data point is an array that contains multiple LTE cells)
        },
        "wifi_info": { // AND filter by Wi-Fi APs
            "centerFreq0": ">5000", // at least one of the AP in data point (is in 5 GHz
            "width": "80",          // AND has channel width of 80 MHz)
        },
        "opName": "T-Mobile", // AND filter by operator name, only take data point with T-Mobile operator

        "datetimeIso": [  // AND filter by date
            ">2020-11-16T13:00:00.000-0600", // only data that is recorded between Nov 16 2020, 1 PM UTC-6
            "<2021-03-01T00:00:00.000-0600", // and Mar 1 2021, 12 AM UTC-6
        ]
    },
    "samplingRateMillisec": 60000, // Sampling rate in millisec, 1 data will be selected randomly over the timespan
    "numChunk": 0, // Used to keep track of chunk number
    "fileList": [], // Used to keep track of cache files that has been processed
}